<svg version="1.1" xmlns="http://www.w3.org/2000/svg" xmlns:xlink="http://www.w3.org/1999/xlink" x="0px" y="0px" viewBox="0 0 214.6 283.5" style="enable-background:new 0 0 214.6 283.5;" xml:space="preserve">
<style type="text/css">
	.st0{fill-rule:evenodd;clip-rule:evenodd;fill:#F58D95;}
	.st1{fill-rule:evenodd;clip-rule:evenodd;fill:#EA4929;}
	.st2{fill-rule:evenodd;clip-rule:evenodd;fill:#F9C2C7;}
	.st3{fill-rule:evenodd;clip-rule:evenodd;fill:#F49D8E;}
	.st4{fill-rule:evenodd;clip-rule:evenodd;fill:#D0767D;}
	.st5{fill-rule:evenodd;clip-rule:evenodd;fill:#C74127;}
	.st6{display:none;}
	.st7{display:inline;fill-rule:evenodd;clip-rule:evenodd;fill:none;stroke:#EC008C;stroke-width:0.5;stroke-miterlimit:10;}
</style>
<g id="Layer_1">
	<g>
		<path class="st0" d="M107.3,0c59.2,0,107.3,91.7,107.3,170c0,78.2-48.1,113.5-107.3,113.5C48.1,283.5,0,248.2,0,170
			C0,91.7,48.1,0,107.3,0L107.3,0z"></path>
		<path class="st1" d="M211.6,201.9c-2.4,11.5-6,21.7-10.7,30.7c-41.5,25.3-89.2,40.3-137.9,43.3c-11.3-4.3-21.6-10.6-30.5-18.7
			c22.2,1.4,44.5,0.1,66.6-4.1C140,245.2,178.6,227.2,211.6,201.9L211.6,201.9z M211.5,133.8L211.5,133.8c1.3,8,2.3,15.9,2.7,23.8
			C160.8,208.2,83.5,234.1,9,222.2c-2.5-6.3-4.6-13.2-6.1-20.7c55.9,11.1,116.2,1.3,165-30.5C184.1,160.5,198.6,148,211.5,133.8
			L211.5,133.8z M197.3,84.2L197.3,84.2c2.7,6.7,5.2,13.6,7.3,20.7c-29.4,38-72.2,66-120.2,75.1c-27.9,5.2-56.8,4.2-84.2-2.6
			C0,174.9,0,172.4,0,170c0-4,0.1-7.9,0.3-11.9c14.8,4.2,30.3,6.5,46,6.6C105.7,165.1,164.2,133.5,197.3,84.2L197.3,84.2z
			 M176.6,45.4L176.6,45.4c4.1,6,7.9,12.4,11.5,19.1c-33,57.6-103.5,92.2-171.3,79.2c-4.9-0.9-9.9-2.2-14.7-3.5
			c0.9-6.4,2.1-12.7,3.5-19c21.8,6.9,45.5,8.8,68.8,4.2C118.6,117,157.1,85.7,176.6,45.4L176.6,45.4z M149.3,15.8L149.3,15.8
			c5.2,4,10.2,8.8,15,13.9c-1.3,3.2-2.6,6.5-4.1,9.5c-23.6,49-81.2,79.3-136.4,68.7c-4.6-0.9-9.2-2.1-13.6-3.5
			c1.8-6.1,4-12,6.3-17.9c23.3,7,49,6.4,71.9-3.1C117.2,71.4,140,45.7,149.3,15.8L149.3,15.8z M119.7,1.4L119.7,1.4
			c6,1.3,11.8,3.5,17.4,6.5c-4.2,16.3-12.8,31.7-24.9,43.5C88.9,74.1,53.2,83,21.7,74.1c2.8-6,5.8-11.7,9-17.3
			c9.6,2.5,20,3.1,30.7,1C89.5,52.4,113.2,29.2,119.7,1.4L119.7,1.4z M88.6,3.1L88.6,3.1C94.7,1.1,101,0,107.3,0
			c0.5,0,1.1,0,1.7,0.1c-5,19-18.5,36-36.8,43.6c-11.1,4.8-23.5,5.7-35.4,3.4c4.1-6.1,8.6-11.8,13.2-17C66.4,29,81.7,18,88.6,3.1
			L88.6,3.1z"></path>
		<path class="st2" d="M72.4,34.8c0,0-27.3,23-37.1,60c-9.9,37.1-5.2,47.4,0,49.5c5.2,2,16.3-49.9,22.4-60.9
			c6.1-11,20.5-36,22.1-41.9C81.5,35.7,72.4,34.8,72.4,34.8L72.4,34.8z M28.5,159.9c0,0,3.9-4.5,8.7-1.5c4.7,3.1,5.6,16.1-0.3,17
			c-5.9,0.8-10.5-3.6-11.1-7C25.2,165.1,26.2,160.9,28.5,159.9L28.5,159.9z"></path>
		<path class="st3" d="M72.4,34.8c0,0-5.3,4.4-12,12.5c4-0.7,8-1.9,11.8-3.5c2.7-1.1,5.4-2.4,7.9-4C79.6,35.5,72.4,34.8,72.4,34.8
			L72.4,34.8z M51.7,59c-3.5,5.4-7.1,11.5-10.2,18.4c6.7,0.3,13.5,0,20.2-1.1c3.8-6.7,8.5-15.1,12.2-22.1c-4,1.6-8.2,2.9-12.5,3.6
			C58.2,58.4,54.9,58.8,51.7,59L51.7,59z M36.5,90.6c-0.4,1.3-0.8,2.7-1.2,4.1c-1.5,5.4-2.6,10.1-3.4,14.4c5.6,0.7,11.3,1,16.8,0.8
			c2.1-7,4-13.7,5.8-18.9C48.6,91.4,42.5,91.3,36.5,90.6L36.5,90.6z M29.6,126.5c-0.5,12,2.5,16.5,5.8,17.7c2,0.8,4.9-6.6,8.1-16.5
			C38.8,127.6,34.2,127.2,29.6,126.5L29.6,126.5z M40.7,164.6c1,4.7,0,10.2-3.8,10.8c-5.9,0.8-10.5-3.6-11.1-7
			c-0.3-1.7-0.1-3.5,0.3-5.1C30.9,164,35.8,164.4,40.7,164.6L40.7,164.6z"></path>
		<path class="st4" d="M147.7,14.5c39.2,28.9,66.8,96.1,66.8,155.5c0,43-14.5,73-37.4,91.3c11.7-37.6,18.9-90.7,4.2-157.5
			C173,66.1,161,37,147.7,14.5L147.7,14.5z"></path>
		<path class="st5" d="M211.6,201.9c-2.4,11.5-6,21.7-10.7,30.7c-6.1,3.8-12.4,7.2-18.8,10.5c1.8-7.5,3.3-15.6,4.5-24.1
			C195.3,213.7,203.6,208,211.6,201.9L211.6,201.9z M149,16.8c3.9,6.7,7.7,14.1,11.3,22.1c1.4-3,2.8-6.1,4-9.3
			c-4.7-5.1-9.7-9.9-15-13.9l0,0C149.2,16.1,149.1,16.5,149,16.8L149,16.8z M168.7,59.6c2.6,7.2,5,14.8,7.3,22.9
			c4.5-5.7,8.5-11.7,12.1-18c-3.5-6.7-7.4-13.1-11.5-19.1l0,0C174.3,50.3,171.6,55,168.7,59.6L168.7,59.6z M181.4,104.4
			c1.7,7.4,3,14.7,4.1,21.8c6.8-6.7,13.2-13.8,19.1-21.4c-2.1-7-4.6-14-7.3-20.7l0,0C192.5,91.3,187.2,98.1,181.4,104.4L181.4,104.4
			z M188.8,155.6c0.6,7.7,0.8,15.2,0.8,22.3c8.7-6.3,16.9-13.1,24.6-20.4c-0.4-7.9-1.4-15.8-2.7-23.8l0,0
			C204.4,141.6,196.9,148.9,188.8,155.6L188.8,155.6z"></path>
	</g>
</g>
<g id="cut" class="st6">
	<path class="st7" d="M107.3,282.9c-30.8,0-56.9-9.4-75.5-27.2C11.1,235.8,0.6,207,0.6,170c0-38.4,11.7-81,31.4-114.1
		c21.2-35.7,48-55.4,75.4-55.4c27.4,0,54.2,19.7,75.3,55.4C202.3,89,214,131.6,214,170c0,36.4-10.8,66.1-31.3,85.6
		C164.2,273.5,138.1,282.9,107.3,282.9z"></path>
</g>
</svg>