<svg version="1.1" xmlns="http://www.w3.org/2000/svg" xmlns:xlink="http://www.w3.org/1999/xlink" x="0px" y="0px" viewBox="0 0 214.6 283.5" style="enable-background:new 0 0 214.6 283.5;" xml:space="preserve">
<style type="text/css">
	.st0{fill-rule:evenodd;clip-rule:evenodd;fill:#21B5BF;}
	.st1{fill-rule:evenodd;clip-rule:evenodd;fill:#FEE066;}
	.st2{fill-rule:evenodd;clip-rule:evenodd;fill:#FFCA5D;}
	.st3{fill-rule:evenodd;clip-rule:evenodd;fill:#FDFCE7;}
	.st4{fill-rule:evenodd;clip-rule:evenodd;fill:#70CBD3;}
	.st5{fill-rule:evenodd;clip-rule:evenodd;fill:#FFFEF1;}
	.st6{fill-rule:evenodd;clip-rule:evenodd;fill:#FEEA9A;}
	.st7{fill-rule:evenodd;clip-rule:evenodd;fill:#2799A0;}
	.st8{fill-rule:evenodd;clip-rule:evenodd;fill:#D9D4C0;}
	.st9{fill-rule:evenodd;clip-rule:evenodd;fill:#D8BA58;}
	.st10{display:none;}
	.st11{display:inline;fill-rule:evenodd;clip-rule:evenodd;fill:none;stroke:#EC008C;stroke-width:0.5;stroke-miterlimit:10;}
</style>
<g id="Layer_1">
	<g>
		<path class="st0" d="M107.3,0c59.2,0,107.3,91.7,107.3,169.9c0,78.3-48.1,113.6-107.3,113.6S0,248.1,0,169.9
			C0,91.7,48.1,0,107.3,0L107.3,0z"></path>
		<path class="st1" d="M103.3,42.6L103.3,42.6c0.7-1.5,2.3-2.5,4-2.5c1.7,0,3.3,1,4,2.5c1.8,4,3.8,8.2,4.9,10.7
			c0.6,1.5,2,2.4,3.5,2.6c2.8,0.3,7.4,0.8,11.7,1.4c1.7,0.1,3.2,1.4,3.7,3.1c0.6,1.7,0.1,3.5-1.2,4.7c-3.1,2.9-6.6,6.1-8.7,8
			c-1.1,1-1.7,2.6-1.3,4.2c0.6,2.6,1.5,7.3,2.3,11.5c0.4,1.7-0.3,3.5-1.7,4.5c-1.4,1-3.3,1.2-4.8,0.3c-3.8-2.2-7.9-4.5-10.3-5.8
			c-1.3-0.8-3-0.8-4.3,0c-2.4,1.3-6.5,3.6-10.3,5.8c-1.5,0.8-3.4,0.7-4.8-0.3c-1.4-1-2.2-2.7-1.7-4.5c0.8-4.2,1.7-8.8,2.3-11.5
			c0.3-1.6-0.2-3.2-1.3-4.2c-2.1-1.9-5.5-5.1-8.7-8c-1.3-1.2-1.7-3-1.2-4.7c0.5-1.7,1.9-2.9,3.7-3.1c4.3-0.6,8.9-1,11.7-1.4
			c1.5-0.1,2.9-1.1,3.5-2.6C99.5,50.8,101.5,46.6,103.3,42.6L103.3,42.6z"></path>
		<path class="st2" d="M101.6,114.7L101.6,114.7c1-2.2,3.3-3.6,5.7-3.6c2.4,0,4.7,1.5,5.7,3.6c2.5,5.5,5.2,11.4,6.9,15
			c0.9,2,2.8,3.3,5,3.6c3.8,0.4,10.4,1.2,16.3,1.9c2.4,0.3,4.5,1.9,5.2,4.3c0.8,2.3,0.1,4.9-1.7,6.5c-4.5,4-9.3,8.5-12.2,11.2
			c-1.7,1.5-2.4,3.6-1.9,5.8c0.8,3.8,2,10.2,3.3,16.1c0.4,2.4-0.6,4.9-2.5,6.3c-2,1.5-4.7,1.7-6.7,0.4c-5.3-2.9-11-6.2-14.4-8.1
			c-1.9-1.1-4.2-1.1-6.1,0c-3.4,1.9-9.1,5.1-14.4,8.1c-2.1,1.3-4.7,1.1-6.7-0.4c-1.9-1.4-2.9-3.9-2.4-6.3c1.2-5.9,2.4-12.3,3.2-16.1
			c0.5-2.2-0.2-4.4-1.8-5.8c-2.9-2.7-7.7-7.2-12.2-11.2c-1.8-1.7-2.5-4.2-1.7-6.5c0.8-2.4,2.9-4,5.3-4.3c6-0.7,12.5-1.5,16.3-1.9
			c2.2-0.3,4-1.6,4.9-3.6C96.4,126.1,99.1,120.2,101.6,114.7L101.6,114.7z"></path>
		<path class="st1" d="M103.3,260L103.3,260c0.7,1.6,2.3,2.6,4,2.6c1.7,0,3.3-1,4-2.6c1.8-3.8,3.8-8.1,4.9-10.6
			c0.6-1.4,2-2.4,3.5-2.6c2.8-0.3,7.4-0.9,11.7-1.3c1.7-0.3,3.2-1.4,3.7-3.1c0.6-1.7,0.1-3.5-1.2-4.7c-3.1-2.9-6.6-6-8.7-7.9
			c-1.1-1-1.7-2.6-1.3-4.2c0.6-2.8,1.5-7.3,2.3-11.5c0.4-1.7-0.3-3.5-1.7-4.6c-1.4-1-3.3-1-4.8-0.2c-3.8,2.1-7.9,4.4-10.3,5.8
			c-1.3,0.8-3,0.8-4.3,0c-2.4-1.4-6.5-3.7-10.3-5.8c-1.5-0.8-3.4-0.8-4.8,0.2c-1.4,1-2.2,2.9-1.7,4.6c0.8,4.2,1.7,8.7,2.3,11.5
			c0.3,1.5-0.2,3.1-1.3,4.2c-2.1,1.9-5.5,5.1-8.7,7.9c-1.3,1.2-1.7,3.1-1.2,4.7c0.5,1.7,1.9,2.8,3.7,3.1c4.3,0.4,8.9,1,11.7,1.3
			c1.5,0.1,2.9,1.2,3.5,2.6C99.5,251.9,101.5,256.2,103.3,260L103.3,260z"></path>
		<path class="st3" d="M35.4,49.2L35.4,49.2c3.3-5,6.7-9.8,10.4-14.2l21.4,72l2.4,9.5l-4.8-8.6L35.4,49.2z"></path>
		<path class="st3" d="M14.9,90.5L14.9,90.5c1.3-3.6,2.8-7.2,4.3-10.7l40,34.2l7.2,6.7l-8.6-4.6L14.9,90.5z"></path>
		<path class="st1" d="M0.6,154L0.6,154c0.2-2.6,0.6-5.3,0.8-7.9l9.7-4.5c1.4-0.6,2.4-1.9,2.5-3.4c0.3-2.6,0.8-7.2,1.3-11.2
			c0.2-1.7,1.3-3.1,2.9-3.5c1.6-0.6,3.4-0.1,4.5,1.1c2.8,3.1,5.8,6.4,7.7,8.3c1,1.1,2.6,1.6,4,1.3c2.6-0.6,7-1.5,11-2.3
			c1.6-0.3,3.3,0.3,4.3,1.7c1,1.5,1.1,3.2,0.3,4.7c-2,3.5-4.2,7.4-5.5,9.7c-0.8,1.3-0.8,2.9,0,4.2c1.3,2.3,3.5,6.2,5.5,9.8
			c0.8,1.5,0.7,3.3-0.3,4.6c-1,1.4-2.7,2.1-4.3,1.7c-4-0.8-8.4-1.7-11-2.2c-1.5-0.3-3.1,0.2-4,1.3c-1.8,2-4.9,5.3-7.7,8.3
			c-1.1,1.3-2.9,1.7-4.5,1.2c-1.5-0.6-2.6-1.9-2.9-3.5c-0.6-4.1-1-8.6-1.3-11.2c-0.1-1.5-1.1-2.8-2.5-3.4c-2.4-1.1-6.5-3-10.2-4.7
			C0.8,154.1,0.7,154.1,0.6,154L0.6,154z"></path>
		<path class="st3" d="M16.6,237.5L16.6,237.5c-2-3.3-3.9-6.9-5.6-10.6L57.8,199l8.6-4.7l-7.2,6.7L16.6,237.5z"></path>
		<path class="st3" d="M49,269.1L49,269.1c-4-2.2-7.9-4.9-11.5-7.7L64.7,207l4.8-8.6l-2.4,9.5L49,269.1z"></path>
		<path class="st3" d="M172.1,265L172.1,265c-4,2.7-8.1,5.1-12.4,7.2l-19.1-64.3l-2.4-9.5l4.8,8.6L172.1,265z"></path>
		<path class="st3" d="M202.1,230L202.1,230c-1.9,4-4.2,7.7-6.5,11.2l-47-40.1l-7.2-6.7l8.6,4.7L202.1,230z"></path>
		<path class="st1" d="M213.5,148L213.5,148c0.1,1.3,0.2,2.5,0.3,3.8c-0.3,1-1.2,1.9-2.2,2.4c-3.8,1.7-7.8,3.5-10.2,4.7
			c-1.4,0.6-2.3,1.9-2.5,3.4c-0.3,2.6-0.8,7.1-1.3,11.2c-0.2,1.7-1.4,3-3,3.5c-1.6,0.6-3.3,0.1-4.5-1.2c-2.8-3-5.8-6.3-7.6-8.3
			c-1-1-2.6-1.6-4-1.3c-2.6,0.5-7,1.4-11.1,2.2c-1.7,0.4-3.3-0.3-4.3-1.7c-1-1.3-1-3.1-0.2-4.6c1.9-3.6,4.2-7.5,5.5-9.8
			c0.7-1.3,0.7-2.9,0-4.2c-1.3-2.3-3.5-6.3-5.5-9.7c-0.8-1.5-0.8-3.3,0.2-4.7c1-1.3,2.6-1.9,4.3-1.7c4,0.8,8.4,1.7,11.1,2.3
			c1.5,0.3,3-0.2,4-1.3c1.8-1.9,4.8-5.3,7.6-8.3c1.1-1.2,2.9-1.7,4.5-1.1c1.6,0.5,2.8,1.9,3,3.5c0.4,4,1,8.6,1.3,11.2
			c0.2,1.5,1.1,2.8,2.5,3.4c2.4,1.1,6.5,3,10.2,4.7C212.4,146.7,213,147.3,213.5,148L213.5,148z"></path>
		<path class="st3" d="M193.6,75.6L193.6,75.6c1.7,3.8,3.3,7.7,4.9,11.6l-48.4,28.9l-8.6,4.6l7.2-6.7L193.6,75.6z"></path>
		<path class="st3" d="M163.9,29.2L163.9,29.2c4,4.3,7.9,9.2,11.5,14.3L143.1,108l-4.8,8.6l2.4-9.5L163.9,29.2z"></path>
		<path class="st1" d="M107.3,0L107.3,0c2.8,0,5.4,0.2,8.1,0.6c0.3,0.1,0.6,0.1,0.8,0.2l1.5,0.2c3.2,0.5,6.3,1.3,9.3,2.4
			c0.1,0.1,0.1,0.3,0.2,0.5c0.3,1.2,0.1,2.5-0.8,3.3c-2.2,2.1-4.7,4.3-6.2,5.6c-0.8,0.8-1.2,1.9-0.9,3.1c0.3,1.9,1,5.2,1.6,8.2
			c0.2,1.2-0.2,2.4-1.3,3.2c-1,0.7-2.4,0.8-3.5,0.2c-2.6-1.5-5.5-3.1-7.2-4.1c-1-0.6-2.2-0.6-3.1,0c-1.7,1-4.7,2.6-7.3,4.1
			C97.4,28.1,96,28,95,27.3c-1-0.8-1.5-2-1.3-3.2c0.6-3,1.3-6.3,1.7-8.2c0.2-1.1-0.1-2.2-0.9-3.1c-1.5-1.3-4-3.5-6.3-5.6
			c-0.9-0.8-1.2-2.2-0.8-3.3c0.1-0.1,0.1-0.3,0.2-0.5c3.1-1.1,6.1-1.9,9.3-2.4l1.5-0.2c0.3-0.1,0.6-0.1,0.8-0.2
			C101.9,0.2,104.6,0,107.3,0L107.3,0z"></path>
		<path class="st1" d="M120,282.9l0.8-4.2c0.2-1.3-0.2-2.5-1.3-3.2c-1-0.7-2.4-0.8-3.5-0.2c-2.6,1.5-5.5,3.1-7.2,4.1
			c-1,0.5-2.2,0.5-3.1,0c-1.7-1-4.7-2.6-7.3-4.1c-1.1-0.6-2.4-0.5-3.5,0.2c-1,0.7-1.5,1.9-1.3,3.2l0.8,4.2c4.2,0.3,8.4,0.6,12.7,0.6
			C111.6,283.5,115.9,283.3,120,282.9L120,282.9z"></path>
		<path class="st4" d="M68.6,30c0,0-27.3,23-37.1,60c-9.9,37.1-5.2,47.4,0,49.5c5.2,2,16.3-49.9,22.4-60.9c6.1-11,20.5-36,22.1-41.9
			C77.7,30.9,68.6,30,68.6,30L68.6,30z M24.7,155.1c0,0,3.9-4.5,8.7-1.5c4.8,3.1,5.6,16.1-0.3,17c-6,0.8-10.6-3.6-11.1-7
			C21.3,160.3,22.4,156.1,24.7,155.1L24.7,155.1z"></path>
		<path class="st5" d="M50.3,50.6L57,73c-1.2,2.1-2.2,4-3.1,5.6c-0.6,1-1.2,2.4-1.8,4l-9.7-19.4C45,58.6,47.7,54.3,50.3,50.6
			L50.3,50.6z"></path>
		<path class="st5" d="M31.4,90.2l14.3,12.3l-1.6,5.4l-14.9-8.9C29.9,96.3,30.6,93.4,31.4,90.2L31.4,90.2z"></path>
		<path class="st6" d="M25.9,128.5c1.5,1.7,3,3.3,4,4.5c1,1.1,2.6,1.6,4,1.3l1.7-0.3c-1.7,3.8-3.1,6-4.2,5.6
			C29,138.4,26.5,135.5,25.9,128.5L25.9,128.5z M36.8,166.8l-2.8-0.6c-1.5-0.3-3.1,0.2-4,1.3c-0.6,0.7-1.4,1.5-2.2,2.4
			c-3.2-1.3-5.4-4.1-5.8-6.3c-0.6-3.3,0.4-7.5,2.7-8.6c0,0,3.9-4.5,8.7-1.5C36.6,155.7,38.1,162.4,36.8,166.8L36.8,166.8z"></path>
		<path class="st7" d="M148.4,15.1c38.9,29.1,66.2,95.8,66.2,154.8c0,44.4-15.5,75-39.8,93.1c12.5-37.7,20.7-92.3,5.5-161.6
			C172.4,65.2,161,37.1,148.4,15.1L148.4,15.1z"></path>
		<path class="st8" d="M202.1,230L202.1,230c-1.9,4-4.2,7.7-6.5,11.2l-12.3-10.5c0.7-3.5,1.3-7.1,1.9-10.8L202.1,230z"></path>
		<path class="st9" d="M213.5,148L213.5,148c0.1,1.3,0.2,2.5,0.3,3.8c-0.3,1-1.2,1.9-2.2,2.4c-3.8,1.7-7.8,3.5-10.2,4.7
			c-1.4,0.6-2.3,1.9-2.5,3.4c-0.3,2.6-0.8,7.1-1.3,11.2c-0.2,1.7-1.4,3-3,3.5c-1.6,0.6-3.3,0.1-4.5-1.2l-1.5-1.7
			c-0.1-13.9-1-28.7-3.2-44.3c1.5-1.7,3.1-3.5,4.7-5.2c1.1-1.2,2.9-1.7,4.5-1.1c1.6,0.5,2.8,1.9,3,3.5c0.4,4,1,8.6,1.3,11.2
			c0.2,1.5,1.1,2.8,2.5,3.4c2.4,1.1,6.5,3,10.2,4.7C212.4,146.7,213,147.3,213.5,148L213.5,148z"></path>
		<path class="st8" d="M193.6,75.6L193.6,75.6c1.7,3.8,3.3,7.7,4.9,11.6l-18.9,11.2c-0.7-3.1-1.4-6.1-2.2-9L193.6,75.6z"></path>
		<path class="st8" d="M163.9,29.2L163.9,29.2c4,4.3,7.9,9.2,11.5,14.3L168,58.1c-2.4-6.5-4.8-12.6-7.3-18.4L163.9,29.2z"></path>
	</g>
</g>
<g id="cut" class="st10">
	<path class="st11" d="M107.3,282.9c-30.8,0-56.9-9.4-75.5-27.2C11.1,235.8,0.6,207,0.6,170c0-38.4,11.7-81,31.4-114.1
		c21.2-35.7,48-55.4,75.4-55.4c27.4,0,54.2,19.7,75.3,55.4C202.3,89,214,131.6,214,170c0,36.4-10.8,66.1-31.3,85.6
		C164.2,273.5,138.1,282.9,107.3,282.9z"></path>
</g>
</svg>