<svg version="1.1" xmlns="http://www.w3.org/2000/svg" xmlns:xlink="http://www.w3.org/1999/xlink" x="0px" y="0px" viewBox="0 0 214.6 283.5" style="enable-background:new 0 0 214.6 283.5;" xml:space="preserve">
<style type="text/css">
	.st0{fill-rule:evenodd;clip-rule:evenodd;fill:#21B5BF;}
	.st1{fill-rule:evenodd;clip-rule:evenodd;fill:#FEE35D;}
	.st2{fill-rule:evenodd;clip-rule:evenodd;fill:#FDFCE7;}
	.st3{fill-rule:evenodd;clip-rule:evenodd;fill:#7ECFD6;}
	.st4{fill-rule:evenodd;clip-rule:evenodd;fill:#FFEFA0;}
	.st5{fill-rule:evenodd;clip-rule:evenodd;fill:#FFFEF2;}
	.st6{fill-rule:evenodd;clip-rule:evenodd;fill:#2799A0;}
	.st7{fill-rule:evenodd;clip-rule:evenodd;fill:#D8BC4E;}
	.st8{fill-rule:evenodd;clip-rule:evenodd;fill:#D9D4C0;}
	.st9{display:none;}
	.st10{display:inline;fill-rule:evenodd;clip-rule:evenodd;fill:none;stroke:#EC008C;stroke-width:0.5;stroke-miterlimit:10;}
</style>
<g id="Layer_1">
	<g>
		<path class="st0" d="M107.3,0c59.2,0,107.3,91.7,107.3,170c0,78.2-48.1,113.5-107.3,113.5C48,283.5,0,248.2,0,170
			C0,91.7,48,0,107.3,0L107.3,0z"></path>
		<path class="st1" d="M91.2,25.1c4.4,0.3,4.7,6.2,6.7,8.8c3.5,4.7,13.1,3.5,13.1,3.5c6.4,0.2,9,12.1-5.5,11.1
			c-9.8-0.7-20.3-7.9-20.1-18C85.5,27.5,87.8,25,91.2,25.1L91.2,25.1z"></path>
		<path class="st1" d="M167.8,61.8c10.5,0.7,1.4,26.2-17.5,31.9c-4.5,1.3-9.3-4-6.5-8.3c2.5-3.8,8.8-3.9,12.7-8.4
			c2.8-3.1,4.6-7.1,5.8-11.1C162.3,65.9,163.8,61.8,167.8,61.8L167.8,61.8z"></path>
		<path class="st1" d="M73.4,87.9c5.1,0.1,10.2,1.5,14.8,3.7c0,0,2.3,1.2,3,3.3c1.3,4.2-3.3,8.6-8.4,6.4c-7.1-3.1-15.2-2.4-22.1,1
			c0,0-2.2,0.9-4.3,0.1c-4.7-1.7-5.6-8.3,3-11.7c4.1-1.7,8.5-2.7,13-2.9C72.9,87.9,72.9,87.9,73.4,87.9L73.4,87.9z"></path>
		<path class="st1" d="M60.8,148c4,0.3,6.4,4.7,10.5,7c4.3,2.4,9.2,3.6,14.1,4.3c0,0,4,1.3,4.7,4.5c1.7,9.4-21.4,6.1-33.3-6.1
			C53.6,154.4,55.3,147.7,60.8,148L60.8,148z"></path>
		<path class="st1" d="M151.1,140c8.2,0.1,18.4,3.4,15.5,10.2c-1.5,3.7-6.3,2.8-10.6,1.6c-8.3-2.2-16.8,1.1-24.3,4.4
			c0,0-5.4,1-7.2-2.6C120.7,145.9,139.1,140,151.1,140L151.1,140z"></path>
		<path class="st1" d="M118.6,211.5c3.8,0.2,5.4,4.7,7.6,7.6c2.1,2.7,4.7,5,7.6,6.7c2.2,1.4,5.7,0.7,7.4,5.4c1.6,4.4-3.2,9-8.8,6.4
			c-8.2-3.7-15.5-10.1-19-18.4c-0.2-0.5-0.3-1-0.4-1.5C112.5,214.5,115.1,211.4,118.6,211.5L118.6,211.5z"></path>
		<path class="st1" d="M202.3,212.3c3.1,0.2,5,2.8,4.7,6.1c-0.6,1.7-1.2,3.3-1.9,4.9c-0.1,0.1-0.1,0.3-0.2,0.4
			c-3.6,4.9-8.2,9.2-12.7,13.5c-4.5,4-13.3-2.6-6.3-9.4C192.3,221.7,196.9,212.2,202.3,212.3L202.3,212.3z"></path>
		<path class="st1" d="M200.7,135.7c5.3,0.3,8.2,8.2,10.1,15c1,4.2,1.5,8.6,0.6,12.9c0,0-3,6.1-7.6,4.1c-4.3-1.8-2.3-8.1-3.7-13.6
			c-0.9-3.6-2.6-7-4.5-10.2c0,0-1-1.9-0.6-3.9C195.6,137.5,197.6,135.6,200.7,135.7L200.7,135.7z"></path>
		<path class="st1" d="M18.9,210.1c4.2,0.3,6.8,5.1,4,9.3c-3.5,5.4,2.2,12,6.5,15c0,0,3.8,4,1.6,7.4c-2.8,4.6-9.7,1.6-14.6-4.6
			c-1.6-2.7-3.1-5.5-4.6-8.5c-1.6-5.1-1.4-10.9,2.2-16C15.1,211.1,16.5,210.1,18.9,210.1L18.9,210.1z"></path>
		<path class="st1" d="M82,249.2c9.2,0.2,18.3,2.9,25.3,9c4.5,3.9-1.2,13.5-7.9,7.8c-6.8-5.6-16.6-5.8-25.4-5.4
			c-2.4,0.1-3.5,0.9-4.9,0.6c-5.2-1.1-5.9-10.6,3.2-11.7C75.4,249.2,78.7,249.2,82,249.2L82,249.2z"></path>
		<path class="st1" d="M11.8,158.3c8.9,0.1,19.8,2.4,17.7,9.3c-2.3,7.5-14.4,1.3-21,1.9c-0.6,0.1-1.3,0.1-1.9,0.3
			c-0.5,0.1-0.9,0.2-1.4,0.3c-1.8,0.5-3.7,1.3-5.2,2.6c0-0.9,0-1.8,0-2.6c0-3.3,0.1-6.6,0.2-9.9C3.9,158.7,7.9,158.3,11.8,158.3
			L11.8,158.3z"></path>
		<path class="st1" d="M35.8,48.6c7,0.3,14.1,2.3,18.9,7c4,3.8-0.9,12.7-7.9,7.9C41.7,60,35.2,59.2,29,60
			C31.1,56.1,33.4,52.2,35.8,48.6L35.8,48.6z"></path>
		<path class="st1" d="M142.2,12.6c1,0,1.9,0.1,2.9,0.1c7.4,5.1,14.4,11.5,20.9,19c-3.8-1.7-8.1-4.7-13-6.3
			c-4.1-1.2-8.3-1.9-12.6-1.7c0,0-3.8-0.4-5.1-3.1C133.4,16.8,135.9,12.5,142.2,12.6L142.2,12.6z"></path>
		<path class="st1" d="M204.7,105.3c-5.2,3.9-11.1,6.9-17.5,8.3c0,0-4.2,0.2-5.9-2.5c-1.9-3.1,0-7.5,4.1-8.5
			c5.8-1.5,11.1-4.7,15.5-8.6C202.3,97.7,203.5,101.5,204.7,105.3L204.7,105.3z"></path>
		<path class="st1" d="M154.9,190.3c6.7,0.3,14,10.1,14.5,14.9c0.4,5.1-7.2,8-10.9,2.6c-3.1-4.5-8.9-7.2-9.3-11.4
			C149,193.2,151.7,190.3,154.9,190.3L154.9,190.3z"></path>
		<path class="st1" d="M7.3,114.3c0.2,0.1,0.3,0.2,0.5,0.3c4.2,2,8.3-1.5,12-3.3c0,0,2.2-1.1,4.3-0.4c5.1,1.6,5,8.6-4.1,12.7
			c-4.6,2-10.2,2.7-15.1,1.1C5.7,121.2,6.4,117.8,7.3,114.3L7.3,114.3z"></path>
		<path class="st1" d="M57.7,195.7c3.8,0.2,5.1,4.6,7.4,7.3c3,3.6,7.5,5.9,12.2,6.7c0,0,5.1,1.9,4.7,6c-0.9,9.3-23,2-29.5-12
			c0,0-0.8-2.1-0.3-4C53,197.3,54.8,195.7,57.7,195.7L57.7,195.7z"></path>
		<path class="st2" d="M108.8,132.2c5.6,0.2,8.6,10-1,11.3c-6.9,0.9-14.2,2.8-18.1,8.5c0,0-4,3.6-7.4,1.5c-3.3-2.1-2.8-7,0.6-10.7
			c6.4-7,16.2-9.7,25.3-10.6C108.1,132.2,108.3,132.2,108.8,132.2L108.8,132.2z"></path>
		<path class="st2" d="M150,157c8.3,0.6,4.9,17.8-6.1,25.1c-3.7,2.4-9.9,0.4-9.3-4.7c0.3-3,3.6-4.5,5.8-6.7
			C144.9,165.6,143.5,156.9,150,157L150,157z"></path>
		<path class="st2" d="M151.2,205.9c5.4,0.2,7.6,9.3,0,11.3c-3.5,0.9-7.4,1.9-9.7-1c-3.1-4,1-8.4,8.3-10.2
			C150.2,206,150.7,205.9,151.2,205.9L151.2,205.9z"></path>
		<path class="st2" d="M76.1,177c7.7,0.4,5.4,15.1,2.4,20.2c-2.8,4.7-12.5,1.9-9.5-6.1c1.3-3.7,0.8-7.8,1.6-10.2
			C71.3,178.6,73.6,176.9,76.1,177L76.1,177z"></path>
		<path class="st2" d="M94.3,205.9c8.1,0.5,9.5,21.4,0.8,23.7c-4.4,1.1-7.7-4-6-8.9c1.2-3.5-0.9-7.2-0.6-9.9
			C88.9,208.1,91.5,205.8,94.3,205.9L94.3,205.9z"></path>
		<path class="st2" d="M27.8,131.1c5.6,0.1,11.1,0.9,16.6,2.1c0,0,3.9,1.5,4.4,4.6c0.6,4-3.2,6.9-8.8,5.8c-6.3-1.2-12.8-2-19.2-0.8
			c0,0-4,0.2-5.7-2.4c-2.2-3.4,0.3-8,5.2-8.8C22.8,131.2,25.3,131.1,27.8,131.1L27.8,131.1z"></path>
		<path class="st2" d="M41.8,157.9c6.8,0.3,4.5,14.5,0.3,17.2c-4.2,2.7-10.4-2.3-7.3-8.3c0.4-1,0.9-1.9,1.1-2.9
			C36.7,160.8,38.2,157.8,41.8,157.9L41.8,157.9z"></path>
		<path class="st2" d="M78.2,62.2c4.5,0.1,6.5,5.4,3.2,10.4c-1.3,1.9-2.1,4.2-4.4,5.1c-4.3,1.5-8.9-3.5-6.3-8.6
			c0.6-1.3,1.4-2.5,2.2-3.7C74.3,63.6,75.8,62.2,78.2,62.2L78.2,62.2z"></path>
		<path class="st1" d="M165.7,254.9c3.3,0.2,5.7,3.5,8.8,5.7c0.7,0.4,1.3,0.9,1.9,1.3c-3.1,2.4-6.4,4.7-9.8,6.7
			c-1.7-1.3-3.3-2.6-4.9-4c0,0-2.4-2.6-1.7-5.4C160.5,256.7,162.5,254.8,165.7,254.9L165.7,254.9z"></path>
		<path class="st2" d="M10.7,173c6,0.3,6.5,9.5,9.2,14.6c2.5,5.1-5.6,13.4-11.1,3.1C4.7,183.1,3.7,172.9,10.7,173L10.7,173z"></path>
		<path class="st2" d="M16.1,89.9c4.2,0.1,6.3,5,4,9.6c-1.7,3.5-1.9,8-4.9,9.7c-2,1.3-4.5,0.7-6.2-0.9c1.8-6.2,3.8-12.4,6.1-18.4
			C15.4,89.9,15.8,89.9,16.1,89.9L16.1,89.9z"></path>
		<path class="st2" d="M37.1,61.8c3.7,0.2,5.6,3.8,5.1,8.7c-0.8,6.1,3.1,11.9,0.2,15.4c-2.8,3.4-8.4,2.2-10.5-4.1
			c-2-6.1-1.3-14.5,0.3-17.1C33.1,63,34.7,61.8,37.1,61.8L37.1,61.8z"></path>
		<path class="st2" d="M74.5,105.5c6.3,0.2,8.8,10.1,18.3,10.1c6.3,0.3,9.5,13.6-5.1,10.8c-7.6-1.5-15.2-6.2-18.2-13
			C67.9,110,70.4,105.5,74.5,105.5L74.5,105.5z"></path>
		<path class="st2" d="M125.2,32c9.2,0.3,6.9,22.7-3.8,31.2c-2.3,1.8-6,3.5-6,3.5c-5.4,1.9-11.6-6.7-3.5-10.6
			c6.4-3.1,8.3-11.7,7.7-18.2C119.5,38,120,31.9,125.2,32L125.2,32z"></path>
		<path class="st2" d="M54.9,24.9c6.2,1.2,12,3.5,16.1,8.3c3.3,4,0.8,11.2-4.7,9.9c-2.5-0.6-3.8-3.3-6.1-4.9c-4-2.8-9.3-3-14.4-3.1
			C48.7,31.4,51.8,28,54.9,24.9L54.9,24.9z"></path>
		<path class="st2" d="M112.3,0.3c1.5,4.9,1.8,10.6,1.3,13.8c-1,5.6-10.5,6.2-11.1-2.5c-0.3-3.6-1.6-7.6-2.4-11.1
			c2.4-0.3,4.8-0.5,7.2-0.5C109,0,110.6,0.1,112.3,0.3L112.3,0.3z"></path>
		<path class="st2" d="M152.8,30.5c3,0.1,4.6,3.3,6.5,5.6c4.5,5.1,12.9,5.1,13.6,10.2c0.7,4.8-4.6,7.7-11.6,4.5
			c-6.8-3.1-15.6-8.8-14.2-15.8C147.6,32.4,149.7,30.5,152.8,30.5L152.8,30.5z"></path>
		<path class="st2" d="M122.3,84.5c6.7,0.3,5.8,11.1,19.3,14.5c1.3,0.3,3.6,1.4,4.5,3.3c1.7,3.9-2.2,8.8-6.8,7.5
			c-9.5-2.3-18.2-7.7-21.9-16.8C115.9,89.5,117.4,84.5,122.3,84.5L122.3,84.5z"></path>
		<path class="st2" d="M168.6,103.2c6.8,0.3,4.5,11.5,9.2,17.6c3.3,4.7-3.5,14.7-10.6,4.5c-2.9-4.1-4.4-9.1-4.5-14.1
			C162.7,107.3,164.5,103.2,168.6,103.2L168.6,103.2z"></path>
		<path class="st2" d="M196.5,82.5c-3.8,2.9-6.8,6.1-10.4,4.7c-4.2-1.6-4.4-7.2,0.7-11.4c1.6-1.4,3.3-2.9,4.9-4
			C193.4,75.2,195,78.8,196.5,82.5L196.5,82.5z"></path>
		<path class="st2" d="M192.4,169.7c3.3,0.3,5.8,3.5,9.3,4.8c4.2,1.6,9.3,3,12.9,2.6c-0.2,4-0.4,7.9-0.8,11.5
			c-8.7,0.6-18.6-3.3-25.1-9C185,176.3,186.6,169.5,192.4,169.7L192.4,169.7z"></path>
		<path class="st2" d="M199.4,201.7c4.1,0.1,8.6,0.8,11.7,2.4c-0.8,3.7-1.8,7.2-2.8,10.5c-0.6,0-1.3-0.1-1.8-0.3
			c-4.6-1.5-10.3-0.5-13.1-1.6c-4.9-2-5.8-10.9,5.4-11C199.1,201.7,199.1,201.7,199.4,201.7L199.4,201.7z"></path>
		<path class="st2" d="M159.4,230.3c4.1,0.1,6.7,4.9,4.2,9.2c-3.1,5.4-8.1,9.4-13.8,11.8c-3.5,1.6-8.4,0.1-8.8-4.2
			c-0.5-6.1,9.5-7.7,13.6-14.3C155.6,231.2,157.1,230.2,159.4,230.3L159.4,230.3z"></path>
		<path class="st2" d="M121.2,264.6c4.4,0.2,7.1,5.9,3.7,9.6c-3.8,3.9-8.3,7.2-13.2,9.2c-1.5,0.1-2.9,0.1-4.4,0.1
			c-3.2,0-6.4-0.1-9.5-0.3c-1.8-2.9-1-7.6,4.9-8.9c5.5-1.2,10.5-4,14.5-8.1C117.2,266.2,118.8,264.5,121.2,264.6L121.2,264.6z"></path>
		<path class="st2" d="M58.8,240.8c4.5,0.3,6.5,5.8,3,10.3c-3,4-2.3,9.1-4.7,11.5c-3.3,3.5-10.4,1-9.5-6.6
			C48.6,248.4,54.6,240.7,58.8,240.8L58.8,240.8z"></path>
		<path class="st2" d="M39.8,218.6c3.3,0.1,6.5,0.4,9.5,1.4c3.9,1.2,7,5.6,4.1,9.2c-3.6,4.6-11.8,0.5-19.4,1
			c-5.8,0.1-8-10.4,0.7-11.3C36.4,218.8,38.2,218.6,39.8,218.6L39.8,218.6z"></path>
		<path class="st3" d="M74.3,34.8c0,0-27.3,23-37.1,60c-9.8,37.1-5.2,47.4,0,49.5c5.2,2,16.3-49.9,22.4-60.9
			c6.1-11,20.5-36,22.2-41.9C83.4,35.7,74.3,34.8,74.3,34.8L74.3,34.8z M30.4,159.9c0,0,3.9-4.5,8.7-1.5c4.8,3.1,5.6,16.1-0.3,17
			c-5.9,0.8-10.6-3.6-11.1-7C27,165.1,28.1,160.9,30.4,159.9L30.4,159.9z"></path>
		<path class="st4" d="M53.5,100.2C52.2,98,52.6,95,56,92.5C55.2,94.8,54.4,97.5,53.5,100.2L53.5,100.2z"></path>
		<path class="st4" d="M28.2,162.4c1.3,1.3,1.9,3.1,1.3,5.1c-0.3,1-0.8,1.7-1.3,2.3c-0.3-0.5-0.4-1-0.5-1.5
			C27.3,166.5,27.5,164.2,28.2,162.4L28.2,162.4z"></path>
		<path class="st4" d="M55.4,56.3c2.2,3.4-0.7,9.2-5.5,8.5C51.7,61.8,53.5,59,55.4,56.3L55.4,56.3z"></path>
		<path class="st5" d="M31.5,131.3c4,0.3,8.1,1,12,1.8c-1.7,4.9-3.3,8.7-4.7,10.3c-1.3-0.2-2.6-0.4-3.8-0.6
			C33.1,140.9,31.8,137.4,31.5,131.3L31.5,131.3z"></path>
		<path class="st5" d="M37.5,175.4c-2.8-1.2-4.8-4.7-2.7-8.7c0.4-1,0.9-1.9,1.1-2.9c0.6-2.2,1.6-4.3,3.3-5.3
			c4.7,3.2,5.4,15.9-0.4,16.8C38.4,175.4,37.9,175.4,37.5,175.4L37.5,175.4z"></path>
		<path class="st5" d="M43,78.4c0.6,3,1,5.6-0.6,7.5c-0.8,1-1.9,1.7-3.1,1.8C40.4,84.4,41.6,81.4,43,78.4L43,78.4z"></path>
		<path class="st5" d="M72.4,36.5c0.6,3.7-1.9,7.6-6.2,6.6c-0.1,0-0.1,0-0.2-0.1C68.7,40.1,70.9,37.8,72.4,36.5L72.4,36.5z"></path>
		<path class="st6" d="M151.6,17.6c37.1,30.4,63,95,63,152.4c0,41.1-13.4,70.4-34.6,88.9c11.3-37.4,17.8-89.7,3.5-155.1
			C175.5,67.8,164.2,39.7,151.6,17.6L151.6,17.6z"></path>
		<path class="st7" d="M202.3,212.3c3.1,0.2,5,2.8,4.7,6.1c-0.6,1.7-1.2,3.3-1.9,4.9c-0.1,0.1-0.1,0.3-0.2,0.4
			c-3.6,4.9-8.2,9.2-12.7,13.5c-1.9,1.7-4.7,1.5-6.7,0.1c0.8-3.7,1.5-7.4,2.1-11.3C193.2,220,197.5,212.2,202.3,212.3L202.3,212.3z"></path>
		<path class="st7" d="M200.7,135.7c5.3,0.3,8.2,8.2,10.1,15c1,4.2,1.5,8.6,0.6,12.9c0,0-3,6.1-7.6,4.1c-4.3-1.8-2.3-8.1-3.7-13.6
			c-0.9-3.6-2.6-7-4.5-10.2c0,0-1-1.9-0.6-3.9C195.6,137.5,197.6,135.6,200.7,135.7L200.7,135.7z"></path>
		<path class="st7" d="M151.6,17.6c5,4.1,9.8,8.8,14.4,14.1c-2.8-1.3-5.9-3.3-9.3-4.8C155,23.7,153.3,20.6,151.6,17.6L151.6,17.6z"></path>
		<path class="st7" d="M204.7,105.3c-5.2,3.9-11.1,6.9-17.5,8.3c0,0-0.8,0-1.8-0.1c-0.6-3.2-1.3-6.4-1.9-9.6l-0.1-0.3
			c0.6-0.4,1.3-0.7,2-0.9c5.8-1.5,11.1-4.7,15.5-8.6C202.3,97.7,203.5,101.5,204.7,105.3L204.7,105.3z"></path>
		<path class="st8" d="M162.3,38.5c4.5,2.9,10.1,3.6,10.7,7.8c0.5,3.1-1.6,5.4-5,5.8C166.1,47.4,164.2,42.9,162.3,38.5L162.3,38.5z"></path>
		<path class="st8" d="M196.5,82.5c-3.8,2.9-6.8,6.1-10.4,4.7c-4.2-1.6-4.4-7.2,0.7-11.4c1.6-1.4,3.3-2.9,4.9-4
			C193.4,75.2,195,78.8,196.5,82.5L196.5,82.5z"></path>
		<path class="st8" d="M192.4,169.7c3.3,0.3,5.8,3.5,9.3,4.8c4.2,1.6,9.3,3,12.9,2.6c-0.2,4-0.4,7.9-0.8,11.5
			c-7.4,0.6-15.7-2.2-22-6.6c0.1-4,0-8.1-0.1-12.3C191.8,169.7,192.1,169.7,192.4,169.7L192.4,169.7z"></path>
		<path class="st8" d="M199.4,201.7c4.1,0.1,8.6,0.8,11.7,2.4c-0.8,3.7-1.8,7.2-2.8,10.5c-0.6,0-1.3-0.1-1.8-0.3
			c-4.6-1.5-10.3-0.5-13.1-1.6c-1.8-0.7-3-2.4-3.3-4.1c0.1-0.9,0.1-1.9,0.3-2.9c0.9-2.2,3.5-4,8.5-4
			C199.1,201.7,199.1,201.7,199.4,201.7L199.4,201.7z"></path>
	</g>
</g>
<g id="cut" class="st9">
	<path class="st10" d="M107.3,282.9c-30.8,0-56.9-9.4-75.5-27.2C11.1,235.8,0.6,207,0.6,170c0-38.4,11.7-81,31.4-114.1
		c21.2-35.7,48-55.4,75.4-55.4c27.4,0,54.2,19.7,75.3,55.4C202.3,89,214,131.6,214,170c0,36.4-10.8,66.1-31.3,85.6
		C164.2,273.5,138.1,282.9,107.3,282.9z"></path>
</g>
</svg>