{
  "id": "pasen_2020",
  "title": "Eitjes zoeken in Sinaai",
  "description": "\n<b>Welkom bij oma op de paasbrunch!</b> <br>\nOmdat we dit jaar niet echt naar Sinaai mogen, <br>\nheeft de paashaas de eitjes via de computer verstopt! <br>\nKies een plekje in het huis of de tuin van oma, en zoeken maar.<br>\nVolle mandjes eerlijk delen met broer en zus!\n",
  "max_plaatsen": 7,
  "min_score": 5,
  "eerste_plaats": "street_view",
  "beloningen": [
    {
      "id": "oma",
      "title": "Oma zegt: GOED GEDAAN!",
      "description": "En nu naar binnen voor de paasbrunch ... <br>Nog niet meteen alle eitjes opeten hé."
    },
    {
      "id": "brunch",
      "title": "Aan tafel!",
      "width": "800px",
      "description": "Binnen wacht een lekkere paasbrunch ... <br>Oma houdt wel wat over voor volgend jaar ..."
    },
    {
      "id": "pinguin",
      "title": "Felicitaties van de pinguin!",
      "description": "Maar hebben jullie haar eitje ergens gezien?"
    }
  ],
  "plaatsen": [
    {
      "id": "beren_in_bos",
      "score": 10,
      "title": "Knuffels aan de waslijn",
      "description": "\nHeeft de paashaas ook de knuffels getrakteerd? <br>\nJe weet toch dat knuffels ziek worden van te veel chocolade! <br>\nVlug, vind alle eitjes, en kijk ook achter de oortjes!\n",
      "eieren": [
        {
          "id": "ster",
          "ext": "svg",
          "title": "een eitje",
          "verstopt": {
            "width": "30px",
            "bottom": "355px",
            "right": "10px",
            "opacity": 0.5
          }
        },
        {
          "id": "rood",
          "ext": "svg",
          "title": "een eitje",
          "verstopt": {
            "width": "60px",
            "bottom": "325px",
            "right": "735px",
            "opacity": 0.6
          }
        },
        {
          "id": "appelblauwzeegroen",
          "ext": "svg",
          "title": "een eitje",
          "verstopt": {
            "width": "25px",
            "bottom": "155px",
            "right": "500px",
            "opacity": 0.7
          }
        },
        {
          "id": "bloem",
          "ext": "svg",
          "title": "een eitje",
          "verstopt": {
            "width": "40px",
            "bottom": "20px",
            "right": "710px"
          }
        },
        {
          "id": "oranje",
          "ext": "svg",
          "title": "een eitje",
          "verstopt": {
            "width": "20px",
            "bottom": "375px",
            "right": "112px",
            "opacity": 0.8
          }
        },
        {
          "id": "hart",
          "ext": "svg",
          "title": "een eitje",
          "verstopt": {
            "width": "40px",
            "bottom": "75px",
            "right": "215px",
            "opacity": 0.4
          }
        }
      ]
    },
    {
      "id": "street_view",
      "ext": "png",
      "score": 9,
      "title": "Op straat",
      "description": "\nWelkom bij oma in Sinaai! <br>\nGroeien er al peren aan de perenboom? <br>\nOf is het iets anders ...?\n",
      "eieren": [
        {
          "id": "ster",
          "ext": "svg",
          "title": "een eitje",
          "verstopt": {
            "width": "30px",
            "bottom": "25px",
            "right": "210px",
            "opacity": 0.6
          }
        },
        {
          "id": "rood",
          "ext": "svg",
          "title": "een eitje",
          "verstopt": {
            "width": "40px",
            "bottom": "160px",
            "right": "30px",
            "opacity": 0.4
          }
        },
        {
          "id": "appelblauwzeegroen",
          "ext": "svg",
          "title": "een eitje",
          "verstopt": {
            "width": "25px",
            "bottom": "335px",
            "right": "515px",
            "opacity": 0.3
          }
        },
        {
          "id": "bloem",
          "ext": "svg",
          "title": "een eitje",
          "verstopt": {
            "width": "30px",
            "bottom": "100px",
            "right": "760px",
            "opacity": 0.8
          }
        },
        {
          "id": "oranje",
          "ext": "svg",
          "title": "een eitje",
          "verstopt": {
            "width": "10px",
            "bottom": "185px",
            "right": "370px",
            "opacity": 0.5
          }
        },
        {
          "id": "hart",
          "ext": "svg",
          "title": "een eitje",
          "verstopt": {
            "width": "40px",
            "bottom": "295px",
            "right": "660px",
            "opacity": 0.5
          }
        }
      ]
    },
    {
      "id": "bank",
      "score": 9,
      "title": "De bank",
      "description": "\nEven luieren in de zon op de bank ... <br>\nMaar niet te lang, want ander smelten de eitjes!!!\n",
      "eieren": [
        {
          "id": "ster",
          "ext": "svg",
          "title": "een eitje",
          "verstopt": {
            "width": "40px",
            "bottom": "105px",
            "right": "213px",
            "opacity": 0.4
          }
        },
        {
          "id": "rood",
          "ext": "svg",
          "title": "een eitje",
          "verstopt": {
            "width": "25px",
            "bottom": "415px",
            "right": "190px",
            "opacity": 0.4
          }
        },
        {
          "id": "appelblauwzeegroen",
          "ext": "svg",
          "title": "een eitje",
          "verstopt": {
            "width": "23px",
            "bottom": "555px",
            "right": "465px",
            "opacity": 0.6
          }
        },
        {
          "id": "bloem",
          "ext": "svg",
          "title": "een eitje",
          "verstopt": {
            "width": "30px",
            "bottom": "455px",
            "right": "50px"
          }
        },
        {
          "id": "oranje",
          "ext": "svg",
          "title": "een eitje",
          "verstopt": {
            "width": "21px",
            "bottom": "415px",
            "right": "465px",
            "opacity": 0.6
          }
        },
        {
          "id": "hart",
          "ext": "svg",
          "title": "een eitje",
          "verstopt": {
            "width": "40px",
            "bottom": "165px",
            "right": "740px",
            "opacity": 0.7
          }
        }
      ]
    },
    {
      "id": "bureau",
      "score": 8,
      "title": "Het bureau van oma",
      "description": "\nLangs deze computer heeft de paashaas <br>\nwaarschijnlijk de eitjes verstopt.<br>\nDus heeft hij er hier misschien een paar laten vallen?\n",
      "eieren": [
        {
          "id": "ster",
          "ext": "svg",
          "title": "een eitje",
          "verstopt": {
            "width": "30px",
            "bottom": "425px",
            "right": "430px",
            "opacity": 0.3
          }
        },
        {
          "id": "rood",
          "ext": "svg",
          "title": "een eitje",
          "verstopt": {
            "width": "30px",
            "bottom": "305px",
            "right": "205px",
            "opacity": 0.5
          }
        },
        {
          "id": "appelblauwzeegroen",
          "ext": "svg",
          "title": "een eitje",
          "verstopt": {
            "width": "35px",
            "bottom": "200px",
            "right": "588px",
            "opacity": 0.7
          }
        },
        {
          "id": "bloem",
          "ext": "svg",
          "title": "een eitje",
          "verstopt": {
            "width": "40px",
            "bottom": "225px",
            "right": "430px",
            "opacity": 0.8
          }
        },
        {
          "id": "oranje",
          "ext": "svg",
          "title": "een eitje",
          "verstopt": {
            "width": "21px",
            "bottom": "195px",
            "right": "100px",
            "opacity": 0.6
          }
        },
        {
          "id": "hart",
          "ext": "svg",
          "title": "een eitje",
          "verstopt": {
            "width": "70px",
            "bottom": "390px",
            "right": "5px",
            "opacity": 0.2
          }
        }
      ]
    },
    {
      "id": "kip",
      "ext": "png",
      "score": 8,
      "width": "600px",
      "title": "De kip",
      "description": "\nTooook, toook, tooowk ...<br>\n<br>\nEitje gelegd kippetje?<br>\nOf zijn ze van iemand anders misschien?\n",
      "eieren": [
        {
          "id": "ster",
          "ext": "svg",
          "title": "een eitje",
          "verstopt": {
            "width": "30px",
            "bottom": "695px",
            "right": "220px",
            "opacity": 0.8
          }
        },
        {
          "id": "rood",
          "ext": "svg",
          "title": "een eitje",
          "verstopt": {
            "width": "200px",
            "bottom": "55px",
            "right": "210px",
            "opacity": 0.3
          }
        },
        {
          "id": "appelblauwzeegroen",
          "ext": "svg",
          "title": "een eitje",
          "verstopt": {
            "width": "35px",
            "bottom": "525px",
            "right": "2px"
          }
        },
        {
          "id": "bloem",
          "ext": "svg",
          "title": "een eitje",
          "verstopt": {
            "width": "30px",
            "bottom": "420px",
            "right": "410px"
          }
        },
        {
          "id": "oranje",
          "ext": "svg",
          "title": "een eitje",
          "verstopt": {
            "width": "21px",
            "bottom": "355px",
            "right": "50px"
          }
        },
        {
          "id": "hart",
          "ext": "svg",
          "title": "een eitje",
          "verstopt": {
            "width": "30px",
            "bottom": "400px",
            "right": "285px",
            "opacity": 0.6
          }
        }
      ]
    },
    {
      "id": "tafel",
      "score": 8,
      "title": "De tafel",
      "description": "Zou oma een paasbrunch hebben klaargemaakt? <br> Met eitjes?",
      "eieren": [
        {
          "id": "ster",
          "ext": "svg",
          "title": "een eitje",
          "verstopt": {
            "width": "20px",
            "bottom": "550px",
            "right": "540px",
            "opacity": 0.5
          }
        },
        {
          "id": "rood",
          "ext": "svg",
          "title": "een eitje",
          "verstopt": {
            "width": "60px",
            "bottom": "5px",
            "right": "250px",
            "opacity": 0.2
          }
        },
        {
          "id": "appelblauwzeegroen",
          "ext": "svg",
          "title": "een eitje",
          "verstopt": {
            "width": "25px",
            "bottom": "535px",
            "right": "735px",
            "opacity": 0.8
          }
        },
        {
          "id": "bloem",
          "ext": "svg",
          "title": "een eitje",
          "verstopt": {
            "width": "95px",
            "bottom": "465px",
            "right": "75px",
            "opacity": 0.4
          }
        },
        {
          "id": "oranje",
          "ext": "svg",
          "title": "een eitje",
          "verstopt": {
            "width": "15px",
            "bottom": "495px",
            "right": "370px"
          }
        },
        {
          "id": "hart",
          "ext": "svg",
          "title": "een eitje",
          "verstopt": {
            "width": "35px",
            "bottom": "380px",
            "right": "430px",
            "opacity": 0.4
          }
        }
      ]
    },
    {
      "id": "voederbak",
      "ext": "png",
      "score": 8,
      "width": "600px",
      "title": "De voederbak",
      "description": "\nAls je goed kijkt,<br>\nvind je een voederbak<br>\nNiet voor haasjes maar voor paardjes.<br>\n\n",
      "eieren": [
        {
          "id": "ster",
          "ext": "svg",
          "title": "een eitje",
          "verstopt": {
            "width": "50px",
            "bottom": "435px",
            "right": "3px",
            "opacity": 0.5
          }
        },
        {
          "id": "rood",
          "ext": "svg",
          "title": "een eitje",
          "verstopt": {
            "width": "180px",
            "bottom": "545px",
            "right": "400px",
            "opacity": 0.3
          }
        },
        {
          "id": "appelblauwzeegroen",
          "ext": "svg",
          "title": "een eitje",
          "verstopt": {
            "width": "25px",
            "bottom": "555px",
            "right": "260px",
            "opacity": 0.7
          }
        },
        {
          "id": "bloem",
          "ext": "svg",
          "title": "een eitje",
          "verstopt": {
            "width": "30px",
            "bottom": "135px",
            "right": "440px",
            "opacity": 0.5
          }
        },
        {
          "id": "oranje",
          "ext": "svg",
          "title": "een eitje",
          "verstopt": {
            "width": "21px",
            "bottom": "200px",
            "right": "150px",
            "opacity": 0.4
          }
        },
        {
          "id": "hart",
          "ext": "svg",
          "title": "een eitje",
          "verstopt": {
            "width": "190px",
            "bottom": "550px",
            "right": "10px",
            "opacity": 0.1
          }
        }
      ]
    }
  ]
}
